Chapter 5 Introduction to Bootstrapping | WBS DBA: Introduction to Quantitative Analysis
…
Ok lovely. Now, what we do is draw another random sample of 50 from this 50, but each time we draw a data point, we replace it back, so we are always drawing our sample from the full 50. This is called sampling with replacement.

In this way, the new sample can only contain values which were in the original sample, but will contain different numbers of those values, so the distribution will be different, and the statistics may also be different. Let’s do this, and take the mean and median of the sample:

## # A tibble: 50 × 4
##     ...1 biking smoking heart.disease
##    <dbl>  <dbl>   <dbl>         <dbl>
##  1   256  73.1    11.3           1.69
##  2   310  60.3     8.79          4.59
##  3   230  22.7     8.29         11.3 
##  4   135  70.3    26.2           5.24
##  5   119  27.7    18.6          11.5 
##  6   423  71.9    19.4           4.11
##  7   470   6.30   19.4          17.8 
##  8   197  60.3    15.1           4.95
##  9   151  12.3    26.9          17.8 
## 10   111  15.2    14.5          14.6 
## # ℹ 40 more rows
…
Marvellous! Now, let’s do this twice more…

## # A tibble: 50 × 4
##     ...1 biking smoking heart.disease
##    <dbl>  <dbl>   <dbl>         <dbl>
##  1   313  22.9     2.40         11.0 
##  2   111  15.2    14.5          14.6 
##  3   414  29.0    29.2          13.8 
##  4    59  57.2    12.8           5.31
##  5   260  37.7    26.3          11.2 
##  6   414  29.0    29.2          13.8 
##  7   191  46.8    27.3          10.3 
##  8    54   9.82   23.8          17.8 
##  9    80  60.6    18.1           6.52
## 10   470   6.30   19.4          17.8 
## # ℹ 40 more rows
…
## # A tibble: 50 × 4
##     ...1 biking smoking heart.disease
##    <dbl>  <dbl>   <dbl>         <dbl>
##  1   362  49.9     3.86          5.33
##  2    13  48.8    11.0           6.72
##  3   230  22.7     8.29         11.3 
##  4   220  64.1    28.5           7.29
##  5   226  31.7    23.2          12.5 
##  6   101  61.2     4.61          4.36
##  7    59  57.2    12.8           5.31
##  8    54   9.82   23.8          17.8 
##  9   122  46.6    26.9          10.5 
## 10   220  64.1    28.5           7.29
## # ℹ 40 more rows
…
