Chapter 4 Understanging Uncertainty | WBS DBA: Introduction to Quantitative Analysis
…
We can do the same for successively larger samples, say 50, and 200:

## # A tibble: 50 × 4
##     ...1 biking smoking heart.disease
##    <dbl>  <dbl>   <dbl>         <dbl>
##  1   401   69.7   25.0           5.85
##  2   387   64.4   29.3           7.33
##  3   268   34.2   17.8          11.3 
##  4   443   22.5   16.3          13.7 
##  5    84   30.5   29.9          14.3 
##  6   124   15.1    7.89         13.6 
##  7   345   50.9   29.8          10.8 
##  8    44   23.9    4.19         10.9 
##  9   173   10.1   11.3          14.8 
## 10   385   31.7   28.7          13.0 
## # ℹ 40 more rows
…
## # A tibble: 200 × 4
##     ...1 biking smoking heart.disease
##    <dbl>  <dbl>   <dbl>         <dbl>
##  1   364  29.6    18.8          11.8 
##  2    25  30.4    17.0          12.4 
##  3   208  36.5     2.05          8.50
##  4   167  44.7    10.0           7.45
##  5   243   1.26   15.1          16.7 
##  6    41  31.5    22.2          13.2 
##  7   206  44.0     6.58          8.50
##  8   105  52.4    19.8           7.82
##  9   455  36.3    25.3          12.6 
## 10   148  48.7    23.6           9.60
## # ℹ 190 more rows
…
