Chapter 5 Introduction to Bootstrapping | WBS DBA: Introduction to Quantitative Analysis
…
Ok, there we go. Remember, this sample is our ‘data set’ for analysis.

We know the mean and median, but we have no real indication of the uncertainty in those estimates. In order to get that information, we will eventually use the bootstrap method. For now, we are just going to demonstrate the basic idea.

So, what we do now is draw another random sample of 50 from this 50, but each time we draw a data point, we replace it back, so we are always drawing our sample from the full 50. This is called sampling with replacement.

In this way, the new sample can only contain values which were in the original sample, but can contain different frequencies of those values. Or in other words, each value can occur many different times, and that number of times may be different to the original sample. So the distribution of values in this new sample will be different to the original sample, and the statistics will therefore also be different.

Let’s draw this new sample, take the median and mean of the sample, and plot it:

## # A tibble: 50 × 4
##     ...1 biking smoking heart.disease
##    <dbl>  <dbl>   <dbl>         <dbl>
##  1   384   68.2   15.3           4.48
##  2   378   13.4   29.7          17.2 
##  3   378   13.4   29.7          17.2 
##  4   122   46.6   26.9          10.5 
##  5   200   12.9   25.2          16.3 
##  6   174   60.0   25.5           7.47
##  7   490   70.2   16.3           4.71
##  8   174   60.0   25.5           7.47
##  9   118   17.2   20.7          15.2 
## 10   362   49.9    3.86          5.33
## # ℹ 40 more rows
…
Marvelous! Now, for the purpose of example, let’s draw two more of these resamples from the original 50, take their median and mean, and plot the distributions…

## # A tibble: 50 × 4
##     ...1 biking smoking heart.disease
##    <dbl>  <dbl>   <dbl>         <dbl>
##  1   378  13.4    29.7          17.2 
##  2   328  14.2    26.7          17.4 
##  3    53  69.9    17.4           4.26
##  4   294  67.0    24.2           5.80
##  5   200  12.9    25.2          16.3 
##  6    28  45.2     2.14          6.59
##  7   490  70.2    16.3           4.71
##  8   496   8.28    6.42         13.5 
##  9    50  21.1    18.9          14.8 
## 10   119  27.7    18.6          11.5 
## # ℹ 40 more rows
…
## # A tibble: 50 × 4
##     ...1 biking smoking heart.disease
##    <dbl>  <dbl>   <dbl>         <dbl>
##  1   495  45.1    21.4           9.62
##  2   492  68.9    10.5           3.11
##  3    43   9.67    3.50         12.9 
##  4   476  25.9     8.16         10.9 
##  5   495  45.1    21.4           9.62
##  6   248  29.7    23.3          13.0 
##  7    24  18.4    23.4          16.5 
##  8    85   3.71   21.5          17.9 
##  9   267  70.3     6.42          1.10
## 10     9  65.7    12.0           3.07
## # ℹ 40 more rows
…
