Chapter 4 Beginning to Understand Uncertainty | WBS DBA: Introduction to Quantitative Analysis
…
We can do the same for successively larger samples, say 50, and 200:

## # A tibble: 50 × 4
##     ...1 biking smoking heart.disease
##    <dbl>  <dbl>   <dbl>         <dbl>
##  1   286   25.7   23.3          13.6 
##  2    65   42.3    8.41          7.46
##  3    33   27.3   16.9          12.2 
##  4   319   15.5   19.5          15.2 
##  5   254   34.2   24.4          13.2 
##  6    57   21.5   23.0          15.0 
##  7   467   74.5   22.5           4.30
##  8   461   71.4   12.8           3.26
##  9   117   11.6    6.35         14.4 
## 10    22   18.5   26.4          16.0 
## # ℹ 40 more rows
…
## # A tibble: 200 × 4
##     ...1 biking smoking heart.disease
##    <dbl>  <dbl>   <dbl>         <dbl>
##  1   146  71.5    21.6           3.67
##  2   306  26.2     7.44         12.4 
##  3    19  39.7    12.7           9.75
##  4    50  21.1    18.9          14.8 
##  5   263  67.1     8.48          3.12
##  6   439  63.8     9.91          3.40
##  7    32  61.1    27.8           7.72
##  8    66   1.12   19.6          17.7 
##  9   358  58.0    16.4           5.72
## 10   423  71.9    19.4           4.11
## # ℹ 190 more rows
…
